…
    ## 
    ## ℹ Use `spec()` to retrieve the full column specification for this data.
    ## ℹ Specify the column types or set `show_col_types = FALSE` to quiet this message.

$$\\\\\[.1in\]$$
After analyzing the current data sets I had to rename some of the Q3 and
Q4 column names in order to match with the Q1 column names:
$$\\\\\[.1in\]$$

``` r
(q3_2019 <- rename(q3_2019, ride_id = trip_id, rideable_type = bikeid, started_at = start_time, ended_at = end_time, start_station_name = from_station_name, start_station_id = from_station_id, end_station_name = to_station_name, end_station_id = to_station_id, member_casual = usertype))
```

    ## # A tibble: 1,640,718 × 12
    ##     ride_id started_at          ended_at            rideable_type tripduration
    ##       <dbl> <dttm>              <dttm>                      <dbl>        <dbl>
    ##  1 23479388 2019-07-01 00:00:27 2019-07-01 00:20:41          3591         1214
    ##  2 23479389 2019-07-01 00:01:16 2019-07-01 00:18:44          5353         1048
    ##  3 23479390 2019-07-01 00:01:48 2019-07-01 00:27:42          6180         1554
    ##  4 23479391 2019-07-01 00:02:07 2019-07-01 00:27:10          5540         1503
    ##  5 23479392 2019-07-01 00:02:13 2019-07-01 00:22:26          6014         1213
    ##  6 23479393 2019-07-01 00:02:21 2019-07-01 00:07:31          4941          310
    ##  7 23479394 2019-07-01 00:02:24 2019-07-01 00:23:12          3770         1248
    ##  8 23479395 2019-07-01 00:02:26 2019-07-01 00:28:16          5442         1550
    ##  9 23479396 2019-07-01 00:02:34 2019-07-01 00:28:57          2957         1583
    ## 10 23479397 2019-07-01 00:02:45 2019-07-01 00:29:14          6091         1589
    ## # … with 1,640,708 more rows, and 7 more variables: start_station_id <dbl>,
    ## #   start_station_name <chr>, end_station_id <dbl>, end_station_name <chr>,
    ## #   member_casual <chr>, gender <chr>, birthyear <dbl>

``` r
(q4_2019 <- rename(q4_2019, ride_id = trip_id, rideable_type = bikeid, started_at = start_time, ended_at = end_time, start_station_name = from_station_name, start_station_id = from_station_id, end_station_name = to_station_name, end_station_id = to_station_id, member_casual = usertype))
```

    ## # A tibble: 704,054 × 12
    ##     ride_id started_at          ended_at            rideable_type tripduration
    ##       <dbl> <dttm>              <dttm>                      <dbl>        <dbl>
    ##  1 25223640 2019-10-01 00:01:39 2019-10-01 00:17:20          2215          940
    ##  2 25223641 2019-10-01 00:02:16 2019-10-01 00:06:34          6328          258
    ##  3 25223642 2019-10-01 00:04:32 2019-10-01 00:18:43          3003          850
    ##  4 25223643 2019-10-01 00:04:32 2019-10-01 00:43:43          3275         2350
    ##  5 25223644 2019-10-01 00:04:34 2019-10-01 00:35:42          5294         1867
    ##  6 25223645 2019-10-01 00:04:38 2019-10-01 00:10:51          1891          373
    ##  7 25223646 2019-10-01 00:04:52 2019-10-01 00:22:45          1061         1072
    ##  8 25223647 2019-10-01 00:04:57 2019-10-01 00:29:16          1274         1458
    ##  9 25223648 2019-10-01 00:05:20 2019-10-01 00:29:18          6011         1437
    ## 10 25223649 2019-10-01 00:05:20 2019-10-01 02:23:46          2957         8306
    ## # … with 704,044 more rows, and 7 more variables: start_station_id <dbl>,
    ## #   start_station_name <chr>, end_station_id <dbl>, end_station_name <chr>,
    ## #   member_casual <chr>, gender <chr>, birthyear <dbl>
…
